{
  "name": "Dark Theme",
  "background": "#3c4452",
  "foreground": "#DDE3E9",
  "tableAccent": "#1EB980",
  "dataColors": ["#009efb", "#4c5667", "#00c292", "#f96262", "#ffcd56", "#7460ee", "#f781bf", "#1f78b4"],
  "visualStyles": {
    "*": {
      "*": {
        "title": [
          {
            "show": true,
            "fontColor": { "solid": { "color": "#DDE3E9" } },
            "background": { "solid": { "color": "" } },
            "alignment": "left",
            "fontSize": 11,
            "fontFamily": "Segoe UI"
          }
        ],
        "legend": [
          {
            "show": true,
            "showTitle": false,
            "labelColor": {
              "solid": {
                "color": "#DDE3E9"
              }
            },
            "fontFamily": "Segoe UI",
            "fontSize": 10
          }
        ],
        "*": [
          {
            "responsive": true,
            "wordWrap": false,
            "fontFamily": "Segoe UI"
          }
        ],
        "labels": [
          {
            "show": false,
            "labelOrientation": "vertical"
          }
        ],
        "categoryAxis": [
          {
            "show": true,
            "labelColor": {
              "solid": {
                "color": "#DDE3E9"
              }
            },
            "fontSize": 10,
            "fontFamily": "Segoe UI",
            "showAxisTitle": true,
            "axisStyle": "showTitleOnly",
            "titleColor": {
              "solid": {
                "color": "#DDE3E9"
              }
            },
            "titleFontSize": 10,
            "titleFontFamily": "Segoe UI"
          }
        ],
        "valueAxis": [
          {
            "show": true,
            "labelColor": {
              "solid": {
                "color": "#DDE3E9"
              }
            },
            "fontSize": 10,
            "fontFamily": "Segoe UI",
            "showAxisTitle": true,
            "axisStyle": "showTitleOnly",
            "color": {
              "solid": {
                "color": "#DDE3E9"
              }
            },
            "titleFontSize": 10,
            "titleFontFamily": "Segoe UI",
            "gridlineShow": true,
            "gridlineColor": {
              "solid": {
                "color": "#3C4452"
              }
            },
            "gridlineThickness": 1,
            "gridlineStyle": "dashed"
          }
        ],
        "background": [
          {
            "show": true,
            "color": { "solid": { "color": "#353C48" } },
            "transparency": 0
          }
        ],
        "lockAspect": [
          {
              "show": false
          }
        ],
        "stylePreset": [
          {
            "name": "None"
          }
        ]
      } 
    },
    "page": {
      "*": {
        "background": [
          {
            "color": { "solid": { "color": "#353C48" } },
            "transparency": 0
          }
        ],
        "outspace": [
          {
            "color": { "solid": { "color": "#3c4452" } },
            "transparency": 0
          }
        ]
      }
    },
    "columnChart": {
      "*": {
        "general": [
          {
            "responsive": true
          }
        ],
        "legend": [
          {
            "show": true,
            "position": "Top",
            "showTitle": false,
            "titleText": "",
            "labelColor": {
              "solid": {
                "color": "#DDE3E9"
              }
            },
            "fontFamily": "Segoe UI",
            "fontSize": 10
          }
        ],
        "categoryAxis": [
          {
            "show": true,
            "position": "Right",
            "labelColor": {
              "solid": {
                "color": "#DDE3E9"
              }
            },
            "fontSize": 10,
            "fontFamily": "Segoe UI",
            "preferredCategoryWidth": 30,
            "maxMarginFactor": 28,
            "innerPadding": 22,
            "concatenateLabels": true,
            "showAxisTitle": true,
            "axisStyle": "showTitleOnly",
            "titleColor": {
              "solid": {
                "color": "#DDE3E9"
              }
            },
            "titleFontSize": 10,
            "titleFontFamily": "Segoe UI"
          }
        ],
        "valueAxis": [
          {
            "show": true,
            "labelColor": {
              "solid": {
                "color": "#DDE3E9"
              }
            },
            "fontSize": 10,
            "fontFamily": "Segoe UI",
            "labelDisplayUnits": "0",
            "labelPrecision": "Auto",
            "showAxisTitle": true,
            "axisStyle": "showTitleOnly",
            "color": {
              "solid": {
                "color": "#DDE3E9"
              }
            },
            "titleFontSize": 10,
            "titleFontFamily": "Segoe UI",
            "gridlineShow": true,
            "gridlineColor": {
              "solid": {
                "color": "#3C4452"
              }
            },
            "gridlineThickness": 1,
            "gridlineStyle": "dashed"
          }
        ],
        "labels": [
          {
            "show": true,
            "color": {
              "solid": {
                "color": "#DDE3E9"
              }
            },
            "labelDisplayUnits": "Auto",
            "labelOrientation": "Horizontal",
            "labelPosition": "InsideEnd",
            "fontSize": 10,
            "fontFamily": "Segoe UI",
            "enableBackground": true,
            "backgroundColor": {
              "solid": {
                "color": "#111111"
              }
            },
            "backgroundTransparency": 90
          }
        ],
        "plotArea": [
          {
            "transparency": 0
          }
        ]
      }
    },
    "barChart": {
      "*": {
        "valueAxis": [
          {
            "show": false,
            "showAxisTitle": false
          }
        ]
      }
    },
    "pivotTable": {
      "*": {
        "grid": [
          {
            "gridVertical": true,
            "gridVerticalColor": { "solid": { "color": "#3C4452"}},
            "gridVerticalWeight": 2,
            "gridHorizontal": true,
            "gridHorizontalColor": { "solid": { "color": "#3C4452"}},
            "gridHorizontalWeight": 1,
            "rowPadding": 2,
            "outlineColor": { "solid": { "color": "#3C4452"}},
            "outlineWeight": 1,
            "textSize": 11
          }
        ],
        "columnHeaders": [
          {
            "fontColor": { "solid": { "color": "#E5EAEE"}},
            "backColor": { "solid": { "color": "#323945"}},
            "outline": "Bottom Only",
            "autoSizeColumnWidth": true,
            "fontFamily": "Segoe UI",
            "fontSize": 11,
            "alignment": "Auto",
            "urlIcon": true,
            "wordWrap": true
          }
        ],
        "rowHeaders": [
          {
            "fontColor": { "solid": { "color": "#E5EAEE"}},
            "backColor": { "solid": { "color": ""}},
            "outline": "Right Only",
            "stepped": true,
            "steppedLayoutIndentation": 20,
            "urlIcon": true,
            "wordWrap": true,
            "fontFamily": "Segoe UI",
            "fontSize": 11,
            "alignment": "Auto",
            "urlIcon": true
          }
        ],
        "values": [
          {
            "fontColorPrimary": { "solid": { "color": "#DDE3E9"}},
            "backColorPrimary": { "solid": { "color": ""}},
            "fontColorSecondary": { "solid": { "color": "#DDE3E9"}},
            "backColorSecondary": { "solid": { "color": ""}},
            "bandedRowHeaders": true,
            "valuesOnRow": false,
            "outline": "None",
            "urlIcon": true,
            "wordWrap": true,
            "fontFamily": "Segoe UI",
            "fontSize": 10
          }
        ],
        "subTotals": [
          {
            "rowSubtotals": true,
            "columnSubtotals": true,
            "fontColor": { "solid": { "color": "#f2f3f6"}},
            "fontFamily": "Segoe UI",
            "backColor": { "solid": { "color": "333a45"}},
            "fontSize": 11,
            "applyToHeaders": true,
            "rowSubtotalsPosition": "Top",
            "perRowLevel": true,
            "perColumnLevel": true  
          }
        ],
        "total": [
          {
            "fontColor": { "solid": { "color": "#f2f3f6"}},
            "fontFamily": "Segoe UI",
            "backColor": { "solid": { "color": "#2f353f"}},
            "applyToHeaders": true,
            "fontSize": 12
          }
        ]
      }
    },
    "slicer": {
      "*": {
        "general": [
          {
            "outlineColor": {
              "solid": {
                "color": "#3C4452"
              }
            },
            "outlineWeight": 1,
            "orientation": "vertical",
            "responsive": true
          }
        ],
        "data": [
          {
            "mode": "List",
            "relativeRange": "",
            "relativePeriod": ""
          }
        ],
        "selection": [
          {
            "selectAllCheckboxEnabled": true,
            "singleSelect": false
          }
        ],
        "header": [
          {
            "show": true,
            "fontColor": {
              "solid": {
                "color": "#DDE3E9"
              }
            },
            "outline": "BottomOnly",
            "textSize": 11,
            "fontFamily": "Segoe UI"
          }
        ],
        "items": [
          {
            "fontColor": {
              "solid": {
                "color": "#CED4DA"
              }
            },
            "background": {
              "solid": {
                "color": ""
              }
            },
            "outline": "None",
            "textSize": 10,
            "fontFamily": "Segoe UI"
          }
        ],
        "title": [
          {
            "show": false
          }
        ]
      }
    },
    "kpi": {
      "*": {
        "indicator": [
          {
            "indicatorDisplayUnits": "Auto",
            "indicatorPrecision": 1,
            "fontSize": 45
          }
        ],
        "trendline": [
          {
            "show": true
          }
        ],
        "goals": [
          {
            "showGoal": true,
            "showDistance": true
          }
        ],
        "status": [
          {
            "direction": "Positive",
            "goodColor": {
              "solid": {
                "color": "#00c292"
              }
            },
            "neutralColor": {
              "solid": {
                "color": "#ffcd56"
              }
            },
            "badColor": {
              "solid": {
                "color": "#f96262"
              }
            }
          }
        ]
      }
    },
    "lineClusteredColumnComboChart": {
      "*": {
        "general": [
          {
            "responsive": true
          }
        ],
        "legend": [
          {
            "show": true,
            "position": "Top",
            "showTitle": false,
            "titleText": ""
          }
        ],
        "valueAxis": [
          {
            "show": true,
            "position": "Left",
            "axisScale": "Linear",
            "showAxisTitle": true,
            "axisStyle": "showTitleOnly",
            "gridlineShow": true,
            "secShow": true,
            "alignZeros": true,
            "secPosition": "Right",
            "secAxisScale": "Log",
            "secLabelDisplayUnits": "0",
            "secShowAxisTitle": true,
            "secAxisStyle": "showTitleOnly"
          }
        ],
        "labels": [
          {
            "show": false
          }
        ],
        "lineStyles": [
          {
            "shadeArea": false,
            "strokeWidth": 1,
            "strokeLineJoin": "bevel",
            "showMarker": true,
            "markerShape": "circle",
            "markerSize": 3,
            "markerColor": {
              "solid": {
                "color": "#adb5bd"
              }
            }
          }
        ],
        "plotArea": [
          {
            "transparency": 0
          }
        ]
      }
    },
    "lineChart": {
      "*": {
        "legend": [
          {
            "legendMarkerRendering": "lineAndMarker"
          }
        ],
        "lineStyles": [
          {
            "showMarker": true,
            "showSeries": true
          }
        ],
        "labels": [
          {
            "show": false
          }
        ],
        "dataLabels": [
          {
            "show": false
          }
        ]
      }
    },
    "tableEx": {
      "*": {
        "grid": [
          {
            "gridVertical": false,
            "gridVerticalColor": {
              "solid": {
                "color": "#3C4452"
              }
            },
            "gridVerticalWeight": 1,
            "gridHorizontal": true,
            "gridHorizontalColor": {
              "solid": {
                "color": "#3C4452"
              }
            },
            "gridHorizontalWeight": 1,
            "rowPadding": 3,
            "outlineColor": {
              "solid": {
                "color": "#3C4452"
              }
            },
            "outlineWeight": 1,
            "textSize": 10
          }
        ],
        "columnHeaders": [
          {
            "fontColor": {
              "solid": {
                "color": "#E5EAEE"
              }
            },
            "backColor": {
              "solid": {
                "color": "#323945"
              }
            },
            "outline": "TopBottom",
            "autoSizeColumnWidth": true,
            "fontFamily": "Segoe UI",
            "fontSize": 11,
            "alignment": "Left",
            "wordWrap": false
          }
        ],
        "values": [
          {
            "fontColorPrimary": {
              "solid": {
                "color": "#DDE3E9"
              }
            },
            "backColorPrimary": {
              "solid": {
                "color": ""
              }
            },
            "fontColorSecondary": {
              "solid": {
                "color": "#DDE3E9"
              }
            },
            "backColorSecondary": {
              "solid": {
                "color": "#333a45"
              }
            },
            "outline": "TopBottom",
            "urlIcon": true,
            "wordWrap": true,
            "fontFamily": "Segoe UI",
            "fontSize": 10
          }
        ],
        "total": [
          {
            "totals": true,
            "fontColor": {
              "solid": {
                "color": "#f2f3f6"
              }
            },
            "backColor": {
              "solid": {
                "color": "#2f353f"
              }
            },
            "outline": "None",
            "fontFamily": "Segoe UI",
            "fontSize": 11
          }
        ]
      }
    },
    "basicShape": {
      "*": {
        "line": [
          {
            "lineColor": {
              "solid": {
                "color": "#3C4452"
              }
            },
            "transparency": 0,
            "weight": 1,
            "roundEdge": 4
          }
        ],
        "fill": [
          {
            "show": true,
            "fillColor": {
              "solid": {
                "color": "#3c4452"
              }
            },
            "transparency": 50
          }
        ],
        "rotation": [
          {
            "angle": 0
          }
        ]
      }
    },
    "pieChart": {
      "*": {
        "legend": [
          {
            "show": false,
            "position": "Top",
            "showTitle": true,
            "legendColor": { "solid": { "color": "#DDE3E9"}}
          }
        ],
        "labels": [
          {
            "show": true,
            "color": { "solid": { "color": "#DDE3E9"}},
            "labelDisplayUnits": "0",
            "labelPrecision": 0,
            "fontSize": 10,
            "fontFamily": "Segoe UI",
            "position": "outside"
          }
        ]
      }
    },
    "donutChart": {
      "*": {
        "legend": [
          {
            "show": false,
            "position": "Top",
            "showTitle": true,
            "legendColor": { "solid": { "color": "#DDE3E9"}},
            "fontFamily": "Segoe UI",
            "fontSize": 10
          }
        ],
        "labels": [
          {
            "show": true,
            "color": { "solid": { "color": "#DDE3E9"}},
            "labelDisplayUnits": "0",
            "labelPrecision": 0,
            "fontSize": 10,
            "fontFamily": "Segoe UI",
            "position": "outside"
          }
        ],
        "slices": [
          {
            "innerRadiusRatio": 50
          }
        ]
      }
    },
    "multiRowCard": {
      "*": {
        "dataLabels": [{
          "color": { "solid": { "color": "#DDE3E9"}},
          "fontSize": 20,
          "fontFamily": "Consolas"
        }],
        "categoryLabels": [{
          "show": true,
          "color": { "solid": { "color": "#E5EAEE"}},
          "fontSize": 10,
          "fontFamily": "Segoe UI"
        }],
        "cardTitle": [{
          "color": { "solid": { "color": "#f2f3f6"}},
          "fontSize": 12,
          "fontFamily": "Segoe UI"
        }],
        "card": [{
          "outline": "None",
          "outlineColor": { "solid": { "color": "#3C4452"}},
          "outlineWeight": 1,
          "barShow": true,
          "barColor": { "solid": { "color": "#1EB980"}},
          "barWeight": 4,
          "cardPadding": 20
        }]
      }
    },
    "card": {
      "*": {
        "labels": [{
          "color": { "solid": { "color": "#DDE3E9"}},
          "labelDisplayUnits": "0",
          "labelPrecision": 0,
          "fontSize": 50,
          "fontFamily": "Consolas"
        }],
        "categoryLabels": [{
          "show": true,
          "color": { "solid": { "color": "#E5EAEE"}},
          "fontSize": 10,
          "fontFamily": "Segoe UI"
        }],
        "wordWrap": [{
          "show": true
        }],
        "title": [{
          "show": true,
          "color": { "solid": { "color": "#f2f3f6"}},
          "alignment": "left",
          "fontSize": 10,
          "fontFamily": "Segoe UI"
        }],
        "border": [{
          "show": false,
          "color": { "solid": { "color": "#062b60"}}
        }]
      }
    },
    "actionButton": {
      "*": {
        "visualHeader": [
          {
            "show": true
          }
        ]
      }
    }
  }
}
